{
    "docs": [
        {
            "location": "/",
            "text": "KeyMaker Browser Extension\n\n\nA browser extension which will automate away all your password management complexities, while ensuring your account websites are always secure. The security aspects of password management are based on the \nMaster Password algorithm\n, which is a \ndeterministic password generation\n algorithm.\n\n\nFeatures\n\n\nSeamless management of your account meta data.\n\n\nYour account meta data is comprised of some basic information about your account, and does not include your actual passwords. Rather than that, this information is used to generate passwords with the addition of the Master Password, which only the user knows. For this reason, there is no risk of your passwords getting leaked in the case some one comes in possession of this meta data.\n\n\nThe following is an example of a users meta data. Note that the actual passwords are not stored, ensuring that your passwords will not be breached in the case someone comes in possession of this data. For this reason, one may decide that it would be safe to sync this file with 3rd party synchronization services such as DropBox or Google Drive.\n\n\n{\n  \"accounts\": [\n    {\n      \"counter\": 1,\n      \"id\": 1,\n      \"name\": \"amazon.com\",\n      \"passwordType\": 0,\n      \"uri\": \"www.amazon.com\",\n      \"user\": \"my@email.com\"\n    },\n    {\n      \"counter\": 1,\n      \"id\": 2,\n      \"name\": \"ebay.com\",\n      \"passwordType\": 0,\n      \"uri\": \"www.ebay.com\",\n      \"user\": \"my@email.com\"\n    }\n    ],\n  \"nextId\": 3\n}\n\n\n\n\nAutomatic input of your passwords whenever you encounter a website which you have saved an account for.\n\n\nKeyMaker will prompt you whenever you encounter a page for which you have registered an account.\n\n\n\n\nSemi-automatic registration of new websites to your KeyMaker accounts.\n\n\nYou will be prompted whether you would want to register a website to the KeyMaker database, if it you have not.\n\n\nAsk if you want to register a certain website in the KeyMaker database.\n\n\n\n\nCreate Account interface\n\n\n\n\nAccounts interface\n\n\n\n\nAbout the Master Password algorithm\n\n\nPlease refer to \nMaster Password algorithm\n for details.\n\n\nHow to install\n\n\nCurrently only Chrome on Windows, Linux and macOS are supported. The extension is supported by back-end software which handles the actual password generation and meta data management. Both must be installed for the extension to be functionaly\n\n\nChrome\n\n\nComing soon...\n\n\nFirefox\n\n\nA Firefox version is planned.\n\n\nLinux\n\n\nWindows\n\n\nmacOS\n\n\nFAQ\n\n\nComing soon...\n\n\nDisclaimers\n\n\nPlease acknowledge the following.\n\n\n\n\n\n\nThis software is still in alpha state, and the database format may be changed.\n\n\n\n\n\n\nAccount meta-data is currently not encrypted. This is planned to be implemented in the near future.\n\n\n\n\n\n\nThe current KeyMaker implementation deviates from the Master Password algorithm in that it adds three \"No Symbol\" versions of password types. This is because there are many websites where their password policy does not permit symbols(e.g. !@#$%^&).\n\n\n\n\n\n\nCopy and pasting of passwords is inherently insecure, as it exposes passwords to all other software, black or white. This feature is added as a convenience. However, the auto input feature should preferred.\n\n\n\n\n\n\nImplementation details\n\n\nThe extension relies on the \nNativeMessaging API\n, which interacts with a back-end application. This was required since it is the only way a browser may interact with a file on the user's PC. All password generation and meta-data is handled by the back-end, and the extension's functionality is limited to the user interface.\n\n\nCredits\n\n\n\n\nMaarten Billemont for the \nMaster Password algorithm\n.\n\n\nStefan Scherfke for letting me reuse his Master Password algorithm implementation, \nmpw\n.\n\n\n\u6587\u7ffc(wenzhixin) for \nbootstrap-table\n.\n\n\nAnton Romanovich for \njsl\n.\n\n\nJulian Berman for \njsonschema\n.\n\n\nAl Sweigart for \npyperclip\n.",
            "title": "Home"
        },
        {
            "location": "/#keymaker-browser-extension",
            "text": "A browser extension which will automate away all your password management complexities, while ensuring your account websites are always secure. The security aspects of password management are based on the  Master Password algorithm , which is a  deterministic password generation  algorithm.",
            "title": "KeyMaker Browser Extension"
        },
        {
            "location": "/#features",
            "text": "",
            "title": "Features"
        },
        {
            "location": "/#seamless-management-of-your-account-meta-data",
            "text": "Your account meta data is comprised of some basic information about your account, and does not include your actual passwords. Rather than that, this information is used to generate passwords with the addition of the Master Password, which only the user knows. For this reason, there is no risk of your passwords getting leaked in the case some one comes in possession of this meta data.  The following is an example of a users meta data. Note that the actual passwords are not stored, ensuring that your passwords will not be breached in the case someone comes in possession of this data. For this reason, one may decide that it would be safe to sync this file with 3rd party synchronization services such as DropBox or Google Drive.  {\n  \"accounts\": [\n    {\n      \"counter\": 1,\n      \"id\": 1,\n      \"name\": \"amazon.com\",\n      \"passwordType\": 0,\n      \"uri\": \"www.amazon.com\",\n      \"user\": \"my@email.com\"\n    },\n    {\n      \"counter\": 1,\n      \"id\": 2,\n      \"name\": \"ebay.com\",\n      \"passwordType\": 0,\n      \"uri\": \"www.ebay.com\",\n      \"user\": \"my@email.com\"\n    }\n    ],\n  \"nextId\": 3\n}",
            "title": "Seamless management of your account meta data."
        },
        {
            "location": "/#automatic-input-of-your-passwords-whenever-you-encounter-a-website-which-you-have-saved-an-account-for",
            "text": "KeyMaker will prompt you whenever you encounter a page for which you have registered an account.",
            "title": "Automatic input of your passwords whenever you encounter a website which you have saved an account for."
        },
        {
            "location": "/#semi-automatic-registration-of-new-websites-to-your-keymaker-accounts",
            "text": "You will be prompted whether you would want to register a website to the KeyMaker database, if it you have not.",
            "title": "Semi-automatic registration of new websites to your KeyMaker accounts."
        },
        {
            "location": "/#ask-if-you-want-to-register-a-certain-website-in-the-keymaker-database",
            "text": "",
            "title": "Ask if you want to register a certain website in the KeyMaker database."
        },
        {
            "location": "/#create-account-interface",
            "text": "",
            "title": "Create Account interface"
        },
        {
            "location": "/#accounts-interface",
            "text": "",
            "title": "Accounts interface"
        },
        {
            "location": "/#about-the-master-password-algorithm",
            "text": "Please refer to  Master Password algorithm  for details.",
            "title": "About the Master Password algorithm"
        },
        {
            "location": "/#how-to-install",
            "text": "Currently only Chrome on Windows, Linux and macOS are supported. The extension is supported by back-end software which handles the actual password generation and meta data management. Both must be installed for the extension to be functionaly",
            "title": "How to install"
        },
        {
            "location": "/#chrome",
            "text": "Coming soon...",
            "title": "Chrome"
        },
        {
            "location": "/#firefox",
            "text": "A Firefox version is planned.",
            "title": "Firefox"
        },
        {
            "location": "/#linux",
            "text": "",
            "title": "Linux"
        },
        {
            "location": "/#windows",
            "text": "",
            "title": "Windows"
        },
        {
            "location": "/#macos",
            "text": "",
            "title": "macOS"
        },
        {
            "location": "/#faq",
            "text": "Coming soon...",
            "title": "FAQ"
        },
        {
            "location": "/#disclaimers",
            "text": "Please acknowledge the following.    This software is still in alpha state, and the database format may be changed.    Account meta-data is currently not encrypted. This is planned to be implemented in the near future.    The current KeyMaker implementation deviates from the Master Password algorithm in that it adds three \"No Symbol\" versions of password types. This is because there are many websites where their password policy does not permit symbols(e.g. !@#$%^&).    Copy and pasting of passwords is inherently insecure, as it exposes passwords to all other software, black or white. This feature is added as a convenience. However, the auto input feature should preferred.",
            "title": "Disclaimers"
        },
        {
            "location": "/#implementation-details",
            "text": "The extension relies on the  NativeMessaging API , which interacts with a back-end application. This was required since it is the only way a browser may interact with a file on the user's PC. All password generation and meta-data is handled by the back-end, and the extension's functionality is limited to the user interface.",
            "title": "Implementation details"
        },
        {
            "location": "/#credits",
            "text": "Maarten Billemont for the  Master Password algorithm .  Stefan Scherfke for letting me reuse his Master Password algorithm implementation,  mpw .  \u6587\u7ffc(wenzhixin) for  bootstrap-table .  Anton Romanovich for  jsl .  Julian Berman for  jsonschema .  Al Sweigart for  pyperclip .",
            "title": "Credits"
        }
    ]
}